Eminem Lyric analysis with R - Ezra Citrons Website
…
df_tokens <- df_clean %>% 
  tidytext::unnest_tokens(output = word,input = lyrics)

custom_stop_words <- tidytext::stop_words %>%
  filter(lexicon == 'snowball')

df_tokens %>%
  anti_join(custom_stop_words) %>%
  group_by(album) %>%
  slice_head(n = 5)

## Joining, by = "word"

## # A tibble: 95 x 4
## # Groups:   album [19]
##    song                         album                        album_date word   
##    <chr>                        <chr>                        <chr>      <chr>  
##  1 Intro                        "Curtain Call: The Hits "    2005       woo    
##  2 Intro                        "Curtain Call: The Hits "    2005       hey    
##  3 Intro                        "Curtain Call: The Hits "    2005       guys   
##  4 Intro                        "Curtain Call: The Hits "    2005       want   
##  5 Intro                        "Curtain Call: The Hits "    2005       alright
##  6 Shady Narcotics Eminem Intro "Eminem Presents The Re-Up " 2006       yeah   
##  7 Shady Narcotics Eminem Intro "Eminem Presents The Re-Up " 2006       god    
##  8 Shady Narcotics Eminem Intro "Eminem Presents The Re-Up " 2006       damn   
##  9 Shady Narcotics Eminem Intro "Eminem Presents The Re-Up " 2006       feels  
## 10 Shady Narcotics Eminem Intro "Eminem Presents The Re-Up " 2006       like   
## # … with 85 more rows
…
